Data visualization practice
…
annual_esc <- esc %>% 
  separate(col = sampleDate, into = c("year", "month", "day"), sep = "-") %>%
  mutate(year = as.numeric(year)) %>% 
  group_by(year, SASAP.Region, Species) %>% 
  summarise(escapement = sum(DailyCount)) %>% 
  filter(Species %in% c("Sockeye", "Chum", "Coho", "Pink", "Chinook"))

## `summarise()` regrouping output by 'year', 'SASAP.Region' (override with `.groups` argument)

annual_esc

## # A tibble: 1,484 x 4
## # Groups:   year, SASAP.Region [401]
##     year SASAP.Region Species escapement
##    <dbl> <chr>        <chr>        <int>
##  1  1921 Kodiak       Sockeye    1325061
##  2  1922 Chignik      Chinook        242
##  3  1922 Chignik      Sockeye     428977
##  4  1922 Kodiak       Sockeye     384683
##  5  1923 Chignik      Chinook        286
##  6  1923 Chignik      Sockeye     216124
##  7  1923 Kodiak       Sockeye     694580
##  8  1924 Chignik      Chinook        424
##  9  1924 Chignik      Sockeye    1010136
## 10  1924 Kodiak       Sockeye     775705
## #  with 1,474 more rows
…
